SUMMARY STATISTICS  (1e+05)
-----------------------------------------------------------------

Start:           1
Stop:            100,000  (=1e+05)
Step Size:       1

Pattern Breaks:  45,037

                      Rank       %            Count

       2,178:         01         38.7         38,667
      21,978:         02         06.4         6,370
     219,978:         12         00.0         0
   2,199,978:         12         00.0         0
  11,436,678:         12         00.0         0
  13,973,058:         12         00.0         0
  21,782,178:         12         00.0         0
  21,999,978:         12         00.0         0
 114,396,678:         12         00.0         0
 139,703,058:         12         00.0         0
 217,802,178:         12         00.0         0
 219,999,978:         12         00.0         0

   TOTAL SUM:                    45.0         45,037
