SUMMARY STATISTICS  (1e+06)
-----------------------------------------------------------------

Start:           1
Stop:            1,000,000  (=1e+06)
Step Size:       1

Pattern Breaks:  484,579

                      Rank       %            Count

       2,178:         01         28.0         280,416
      21,978:         02         18.5         185,056
     219,978:         03         01.9         19,107
   2,199,978:         12         00.0         0
  11,436,678:         12         00.0         0
  13,973,058:         12         00.0         0
  21,782,178:         12         00.0         0
  21,999,978:         12         00.0         0
 114,396,678:         12         00.0         0
 139,703,058:         12         00.0         0
 217,802,178:         12         00.0         0
 219,999,978:         12         00.0         0

   TOTAL SUM:                    48.5         484,579
